Extract Trends from Time Series • trendseries
…
series
#> # A tibble: 122 × 5
#>    date       index trend_hp trend_stl trend_ma
#>    <date>     <dbl>    <dbl>     <dbl>    <dbl>
#>  1 1995-01-01 100       101.     102.      NA  
#>  2 1995-04-01 100       101.     101.      99.7
#>  3 1995-07-01 100       102.     100.      99.6
#>  4 1995-10-01 100       103.      99.4    101. 
#>  5 1996-01-01  97.8     103.     101.     102. 
#>  6 1996-04-01 101.      104.     102.     103. 
#>  7 1996-07-01 107.      104.     103.     104. 
#>  8 1996-10-01 103.      105.     104.     106. 
#>  9 1997-01-01 101.      106.     106.     109. 
#> 10 1997-04-01 108.      106.     109.     111. 
#> # ℹ 112 more rows
…
