…
For grouped data, the function applies trend extraction to each group
separately, maintaining the original data structure while adding trend
columns.

## Examples

``` r
# Simple STL decomposition on quarterly GDP construction data
gdp_construction |> augment_trends(value_col = "index")
#> Auto-detected quarterly (4 obs/year)
#> Computing STL trend with s.window = periodic
#> # A tibble: 124 × 3
#>    date       index trend_stl
#>    <date>     <dbl>     <dbl>
#>  1 1995-01-01 100       102. 
#>  2 1995-04-01 100       101. 
#>  3 1995-07-01 100       100. 
#>  4 1995-10-01 100        99.4
#>  5 1996-01-01  97.8     101. 
#>  6 1996-04-01 101.      102. 
#>  7 1996-07-01 107.      103. 
#>  8 1996-10-01 103.      104. 
#>  9 1997-01-01 101.      106. 
#> 10 1997-04-01 108.      109. 
#> # ℹ 114 more rows

# Multiple smoothing methods with unified parameter
gdp_construction |>
  augment_trends(
    value_col = "index",
    methods = c("hp", "loess", "ewma"),
    smoothing = 0.3
  )
#> Auto-detected quarterly (4 obs/year)
#> Computing HP filter (two-sided) with lambda = 480
#> Computing loess trend with span = 0.3
#> Computing EWMA with alpha = 0.3
#> # A tibble: 124 × 5
#>    date       index trend_hp trend_loess trend_ewma
#>    <date>     <dbl>    <dbl>       <dbl>      <dbl>
#>  1 1995-01-01 100       99.1        97.7      100  
#>  2 1995-04-01 100      100.         99.1      100  
#>  3 1995-07-01 100      101.        100.       100  
#>  4 1995-10-01 100      102.        102.       100  
#>  5 1996-01-01  97.8    103.        103.        99.3
#>  6 1996-04-01 101.     104.        104.        99.8
#>  7 1996-07-01 107.     104.        105.       102. 
#>  8 1996-10-01 103.     105.        105.       102. 
#>  9 1997-01-01 101.     106.        106.       102. 
#> 10 1997-04-01 108.     107.        107.       104. 
#> # ℹ 114 more rows

# Moving averages with unified window on monthly data
vehicles |>
  tail(60) |>
  augment_trends(
    value_col = "production",
    methods = c("ma", "wma", "triangular"),
    window = 8
  )
#> Auto-detected monthly (12 obs/year)
#> Computing 2x8-period MA (auto-adjusted for even-window centering)
#> Computing 8-period weighted MA with linear weights, center alignment
#> Computing 8-period triangular MA with center alignment
#> # A tibble: 60 × 5
#>    date       production trend_ma trend_wma trend_triangular
#>    <date>          <dbl>    <dbl>     <dbl>            <dbl>
#>  1 2021-01-01     180904      NA        NA               NA 
#>  2 2021-02-01     186718      NA        NA               NA 
#>  3 2021-03-01     208801      NA        NA               NA 
#>  4 2021-04-01     191853  188457.   188418.          193806.
#>  5 2021-05-01     206221  185917    181049.          190493.
#>  6 2021-06-01     191571  182853.   177322.          184845.
#>  7 2021-07-01     174739  182548.   175420.          179033.
#>  8 2021-08-01     178900  179890.   184002.          176951.
#>  9 2021-09-01     156803  173445.   173298.          174482.
#> 10 2021-10-01     170178  170959.   169534.          173903.
#> # ℹ 50 more rows

# Economic indicators with different methods
ibcbr |>
  tail(48) |>
  augment_trends(
    value_col = "index",
    methods = c("median", "kalman", "kernel"),
    window = 9,
    smoothing = 0.15
  )
#> Auto-detected monthly (12 obs/year)
#> Computing 9-period median filter with endrule = median
#> Computing Kalman smoother with measurement noise = auto
#> Computing kernel smoother with bandwidth = {bandwidth}, kernel = normal
#> # A tibble: 48 × 5
#>    date       index trend_median trend_kalman trend_kernel
#>    <date>     <dbl>        <dbl>        <dbl>        <dbl>
#>  1 2022-01-01  91.8         91.8         97.9         91.8
#>  2 2022-02-01  95.6         95.6         98.5         95.6
#>  3 2022-03-01 105.         100.          99.4        105. 
#>  4 2022-04-01 100.         100.          99.8        100. 
#>  5 2022-05-01  99.7        100.         100.          99.7
#>  6 2022-06-01  99.3        100.         100.          99.3
#>  7 2022-07-01 104.         100.         101.         104. 
#>  8 2022-08-01 105.         100.         101.         104. 
#>  9 2022-09-01 101.         100.0        101.         101. 
#> 10 2022-10-01 100.         100.0        101.         100. 
#> # ℹ 38 more rows

# Moving average with right alignment (causal filter)
vehicles |>
  tail(60) |>
  augment_trends(
    value_col = "production",
    methods = "ma",
    window = 12,
    align = "right"
  )
#> Auto-detected monthly (12 obs/year)
#> Computing 12-period MA with right alignment
#> # A tibble: 60 × 3
#>    date       production trend_ma
#>    <date>          <dbl>    <dbl>
#>  1 2021-01-01     180904       NA
#>  2 2021-02-01     186718       NA
#>  3 2021-03-01     208801       NA
#>  4 2021-04-01     191853       NA
#>  5 2021-05-01     206221       NA
#>  6 2021-06-01     191571       NA
#>  7 2021-07-01     174739       NA
#>  8 2021-08-01     178900       NA
#>  9 2021-09-01     156803       NA
#> 10 2021-10-01     170178       NA
#> # ℹ 50 more rows

# Advanced: fine-tune specific methods
electric |>
  tail(72) |>
  augment_trends(
    value_col = "consumption",
    methods = "median",
    window = 7
  )
#> Auto-detected monthly (12 obs/year)
#> Computing 7-period median filter with endrule = median
#> # A tibble: 72 × 3
#>    date       consumption trend_median
#>    <date>           <dbl>        <dbl>
#>  1 2020-01-01       12909        12530
#>  2 2020-02-01       12383        12432
#>  3 2020-03-01       12432        12383
#>  4 2020-04-01       12318        12318
#>  5 2020-05-01       11756        11852
#>  6 2020-06-01       11396        11852
#>  7 2020-07-01       11707        11852
#>  8 2020-08-01       11852        11852
#>  9 2020-09-01       12240        12240
#> 10 2020-10-01       13090        12778
#> # ℹ 62 more rows
# Multiple MA windows in a single call (adds trend_ma_3, trend_ma_6, trend_ma_12)
vehicles |>
  tail(60) |>
  augment_trends(
    value_col = "production",
    methods = "ma",
    window = c(3, 6, 12)
  )
#> Auto-detected monthly (12 obs/year)
#> Computing 3-period MA with center alignment
#> Auto-detected monthly (12 obs/year)
#> Computing 2x6-period MA (auto-adjusted for even-window centering)
#> Auto-detected monthly (12 obs/year)
#> Computing 2x12-period MA (auto-adjusted for even-window centering)
#> # A tibble: 60 × 5
#>    date       production trend_ma_3 trend_ma_6 trend_ma_12
#>    <date>          <dbl>      <dbl>      <dbl>       <dbl>
#>  1 2021-01-01     180904        NA         NA          NA 
#>  2 2021-02-01     186718    192141         NA          NA 
#>  3 2021-03-01     208801    195791.    193831.         NA 
#>  4 2021-04-01     191853    202292.    192666.         NA 
#>  5 2021-05-01     206221    196548.    187681          NA 
#>  6 2021-06-01     191571    190844.    181542.     185005.
#>  7 2021-07-01     174739    181737.    177244.     181965.
#>  8 2021-08-01     178900    170147.    177075.     179091.
#>  9 2021-09-01     156803    168627     176178.     176611.
#> 10 2021-10-01     170178    167768.    171265.     176003.
#> # ℹ 50 more rows
```
