Moving Averages for Trend Analysis • trendseries
…
Applying augment_trends() to the vehicles
dataset creates a new column called trend_ma.

# Apply a moving average trend
vehicles_trend <- augment_trends(
  vehicles_recent,
  value_col = "production",
  methods = "ma",
  window = 12
)

vehicles_trend
#> # A tibble: 96 × 3
#>    date       production trend_ma
#>    <date>          <dbl>    <dbl>
#>  1 2018-01-01     206675      NA 
#>  2 2018-02-01     204831      NA 
#>  3 2018-03-01     250423      NA 
#>  4 2018-04-01     263490      NA 
#>  5 2018-05-01     236388      NA 
#>  6 2018-06-01     240714  240386.
#>  7 2018-07-01     239856  240879.
#>  8 2018-08-01     274312  240348.
#>  9 2018-09-01     226447  238350.
#> 10 2018-10-01     264434  238466.
#> # ℹ 86 more rows
…
# Apply different window sizes
windows_to_test <- c(3, 6, 12, 24)

vehicles_trend <- vehicles_recent |>
  augment_trends(
    value_col = "production",
    methods = "ma",
    window = windows_to_test
  )

vehicles_trend
#> # A tibble: 96 × 6
#>    date       production trend_ma_3 trend_ma_6 trend_ma_12 trend_ma_24
#>    <date>          <dbl>      <dbl>      <dbl>       <dbl>       <dbl>
#>  1 2018-01-01     206675        NA         NA          NA           NA
#>  2 2018-02-01     204831    220643         NA          NA           NA
#>  3 2018-03-01     250423    239581.    236519.         NA           NA
#>  4 2018-04-01     263490    250100.    245074.         NA           NA
#>  5 2018-05-01     236388    246864     248866.         NA           NA
#>  6 2018-06-01     240714    238986     246946.     240386.          NA
#>  7 2018-07-01     239856    251627.    247288.     240879.          NA
#>  8 2018-08-01     274312    246872.    247309.     240348.          NA
#>  9 2018-09-01     226447    255064.    244254.     238350.          NA
#> 10 2018-10-01     264434    243476     236684.     238466.          NA
#> # ℹ 86 more rows
…
transit_trends <- augment_trends(
  transit,
  date_col = "date_month",
  value_col = "journey_monthly",
  group_cols = "transit_mode",
  methods = c("ma", "median", "spencer")
)

As with multiple windows, augment_trends creates a new
column for each method.

transit_trends
#> # A tibble: 168 × 6
#>    date_month transit_mode journey_monthly   trend_ma trend_median trend_spencer
#>    <date>     <chr>                  <dbl>      <dbl>        <dbl>         <dbl>
#>  1 2019-01-01 bus                155713000        NA     155713000    155453484.
#>  2 2019-02-01 bus                150361000        NA     155713000    158189068.
#>  3 2019-03-01 bus                171440000        NA     155713000    160595589.
#>  4 2019-04-01 bus                155185000        NA     165672000    162514135.
#>  5 2019-05-01 bus                167923000        NA     167075000    163487621.
#>  6 2019-06-01 bus                165672000 161553000     165672000    163582471.
#>  7 2019-07-01 bus                167075000 161880208.    165672000    163404607.
#>  8 2019-08-01 bus                148747000 159353542.    165672000    163807991.
#>  9 2019-09-01 bus                165315000 150961208.    166687000    165322150 
#> 10 2019-10-01 bus                170688000 138208583.    165315000    167443597.
#> # ℹ 158 more rows
…
